Sample_ID,DNA_Plate_ID,DNA_Well_Position,DNA_ng/ul
AMT52,AMMA_2021_1,D01,DNA_ng/ul
AMT51,AMMA_2021_1,C01,DNA_ng/ul
AMLRL13,AMMA_2021_1,B01,DNA_ng/ul
AMMILL8,AMMA_2021_1,A01,DNA_ng/ul
AMT53,AMMA_2021_1,E01,DNA_ng/ul
AMT54,AMMA_2021_1,F01,DNA_ng/ul
AMT55,AMMA_2021_1,G01,DNA_ng/ul
AMT56,AMMA_2021_1,H01,DNA_ng/ul
AMMILL1,AMMA_2021_1,A02,DNA_ng/ul
AMT57,AMMA_2021_1,B02,DNA_ng/ul
AMT58,AMMA_2021_1,C02,DNA_ng/ul
AMSHRB1,AMMA_2021_1,D02,DNA_ng/ul
AMSHRB2,AMMA_2021_1,E02,DNA_ng/ul
AMSHRB3,AMMA_2021_1,F02,DNA_ng/ul
AMSHRB4,AMMA_2021_1,G02,DNA_ng/ul
AMSHRB5,AMMA_2021_1,H02,DNA_ng/ul
AMMILL5,AMMA_2021_1,A03,DNA_ng/ul
AMSHRB6,AMMA_2021_1,B03,DNA_ng/ul
AMSHRB7,AMMA_2021_1,C03,DNA_ng/ul
AMSHRB8,AMMA_2021_1,D03,DNA_ng/ul
AMWP1,AMMA_2021_1,E03,DNA_ng/ul
AMWP2,AMMA_2021_1,F03,DNA_ng/ul
AMWP3,AMMA_2021_1,G03,DNA_ng/ul
AMWP4,AMMA_2021_1,H03,DNA_ng/ul
AMMILL2,AMMA_2021_1,A04,DNA_ng/ul
AMWP5,AMMA_2021_1,B04,DNA_ng/ul
AMWP6,AMMA_2021_1,C04,DNA_ng/ul
AMWP7,AMMA_2021_1,D04,DNA_ng/ul
AMWP8,AMMA_2021_1,E04,DNA_ng/ul
AMWEST1,AMMA_2021_1,F04,DNA_ng/ul
AMWEST2,AMMA_2021_1,G04,DNA_ng/ul
AMWEST3,AMMA_2021_1,H04,DNA_ng/ul
AMMILL3,AMMA_2021_1,A05,DNA_ng/ul
AMWEST4,AMMA_2021_1,B05,DNA_ng/ul
AMWEST5,AMMA_2021_1,C05,DNA_ng/ul
AMWEST6,AMMA_2021_1,D05,DNA_ng/ul
AMWEST7,AMMA_2021_1,E05,DNA_ng/ul
AMWEST8,AMMA_2021_1,F05,DNA_ng/ul
AMWLK1,AMMA_2021_1,G05,DNA_ng/ul
AMWLK2,AMMA_2021_1,H05,DNA_ng/ul
AMMILL4,AMMA_2021_1,A06,DNA_ng/ul
AMWLK3,AMMA_2021_1,B06,DNA_ng/ul
AMWLK4,AMMA_2021_1,C06,DNA_ng/ul
AMWLK5,AMMA_2021_1,D06,DNA_ng/ul
AMWLK6,AMMA_2021_1,E06,DNA_ng/ul
AMWLK7,AMMA_2021_1,F06,DNA_ng/ul
AMWLK8,AMMA_2021_1,G06,DNA_ng/ul
AMLRL1,AMMA_2021_1,H06,DNA_ng/ul
AMMILL6,AMMA_2021_1,A07,DNA_ng/ul
AMLRL2,AMMA_2021_1,B07,DNA_ng/ul
AMLRL3,AMMA_2021_1,C07,DNA_ng/ul
AMLRL4,AMMA_2021_1,D07,DNA_ng/ul
AMLRL5,AMMA_2021_1,E07,DNA_ng/ul
AMLRL6,AMMA_2021_1,F07,DNA_ng/ul
AMLRL7,AMMA_2021_1,G07,DNA_ng/ul
AMLRL8,AMMA_2021_1,H07,DNA_ng/ul
AMMILL7,AMMA_2021_1,A08,DNA_ng/ul
AMQURY1,AMMA_2021_1,B08,DNA_ng/ul
AMQURY2,AMMA_2021_1,C08,DNA_ng/ul
AMQURY3,AMMA_2021_1,D08,DNA_ng/ul
AMQURY4,AMMA_2021_1,E08,DNA_ng/ul
AMQURY5,AMMA_2021_1,F08,DNA_ng/ul
AMQURY6,AMMA_2021_1,G08,DNA_ng/ul
AMQURY7,AMMA_2021_1,H08,DNA_ng/ul
AMLRL9,AMMA_2021_1,A09,DNA_ng/ul
AMQURY8,AMMA_2021_1,B09,DNA_ng/ul
AMLNG1,AMMA_2021_1,C09,DNA_ng/ul
AMLNG2,AMMA_2021_1,D09,DNA_ng/ul
AMLNG3,AMMA_2021_1,E09,DNA_ng/ul
AMLNG4,AMMA_2021_1,F09,DNA_ng/ul
AMLNG5,AMMA_2021_1,G09,DNA_ng/ul
AMLNG6,AMMA_2021_1,H09,DNA_ng/ul
AMLRL10,AMMA_2021_1,A10,DNA_ng/ul
AMLNG7,AMMA_2021_1,B10,DNA_ng/ul
AMLNG8,AMMA_2021_1,C10,DNA_ng/ul
AMSADL1,AMMA_2021_1,D10,DNA_ng/ul
AMSADL2,AMMA_2021_1,E10,DNA_ng/ul
AMSADL3,AMMA_2021_1,F10,DNA_ng/ul
AMSADL4,AMMA_2021_1,G10,DNA_ng/ul
AMSADL5,AMMA_2021_1,H10,DNA_ng/ul
AMLRL11,AMMA_2021_1,A11,DNA_ng/ul
AMSADL6,AMMA_2021_1,B11,DNA_ng/ul
AMSADL7,AMMA_2021_1,C11,DNA_ng/ul
AMSADL8,AMMA_2021_1,D11,DNA_ng/ul
AMNATH1,AMMA_2021_1,E11,DNA_ng/ul
AMNATH2,AMMA_2021_1,F11,DNA_ng/ul
AMNATH3,AMMA_2021_1,G11,DNA_ng/ul
AMNATH4,AMMA_2021_1,H11,DNA_ng/ul
AMLRL12,AMMA_2021_1,A12,DNA_ng/ul
AMNATH5,AMMA_2021_1,B12,DNA_ng/ul
AMNATH6,AMMA_2021_1,C12,DNA_ng/ul
AMNATH7,AMMA_2021_1,D12,DNA_ng/ul
AMNATH8,AMMA_2021_1,E12,DNA_ng/ul
AMBP1,AMMA_2021_1,F12,DNA_ng/ul
AMBP2,AMMA_2021_1,G12,DNA_ng/ul
AMBP3,AMMA_2021_1,H12,DNA_ng/ul
AMBP5,AMMA_2021_2,B01,DNA_ng/ul
AMBP4,AMMA_2021_2,A01,DNA_ng/ul
AMFENC1,AMMA_2021_2,C01,DNA_ng/ul
AMFENC2,AMMA_2021_2,D01,DNA_ng/ul
AMFENC3,AMMA_2021_2,E01,DNA_ng/ul
AMFENC4,AMMA_2021_2,F01,DNA_ng/ul
AMFENC5,AMMA_2021_2,G01,DNA_ng/ul
AMFENC6,AMMA_2021_2,H01,DNA_ng/ul
AMFENC7,AMMA_2021_2,A02,DNA_ng/ul
AMFENC8,AMMA_2021_2,B02,DNA_ng/ul
AMDT1,AMMA_2021_2,C02,DNA_ng/ul
AMDT2,AMMA_2021_2,D02,DNA_ng/ul
AMDT3,AMMA_2021_2,E02,DNA_ng/ul
AMDT4,AMMA_2021_2,F02,DNA_ng/ul
AMDT5,AMMA_2021_2,G02,DNA_ng/ul
AMDT6,AMMA_2021_2,H02,DNA_ng/ul
AMDT7,AMMA_2021_2,A03,DNA_ng/ul
AMDT8,AMMA_2021_2,B03,DNA_ng/ul
AMGNA1,AMMA_2021_2,C03,DNA_ng/ul
AMGNA2,AMMA_2021_2,D03,DNA_ng/ul
AMGNA3,AMMA_2021_2,E03,DNA_ng/ul
AMGNA4,AMMA_2021_2,F03,DNA_ng/ul
AMGNA5,AMMA_2021_2,G03,DNA_ng/ul
AMGNA6,AMMA_2021_2,H03,DNA_ng/ul
AMGNA7,AMMA_2021_2,A04,DNA_ng/ul
AMGNA8,AMMA_2021_2,B04,DNA_ng/ul
AMFU221,AMMA_2021_2,C04,DNA_ng/ul
AMFU222,AMMA_2021_2,D04,DNA_ng/ul
AMFU223,AMMA_2021_2,E04,DNA_ng/ul
AMFU224,AMMA_2021_2,F04,DNA_ng/ul
AMFU225,AMMA_2021_2,G04,DNA_ng/ul
AMFU226,AMMA_2021_2,H04,DNA_ng/ul
AMFU227,AMMA_2021_2,A05,DNA_ng/ul
AMFU228,AMMA_2021_2,B05,DNA_ng/ul
AMGB2,AMMA_2021_2,C05,DNA_ng/ul
AMGB3,AMMA_2021_2,D05,DNA_ng/ul
AMGB4,AMMA_2021_2,E05,DNA_ng/ul
AMGB5,AMMA_2021_2,F05,DNA_ng/ul
AMGB6,AMMA_2021_2,G05,DNA_ng/ul
AMGB7,AMMA_2021_2,H05,DNA_ng/ul
AMGB8,AMMA_2021_2,A06,DNA_ng/ul
AME81,AMMA_2021_2,B06,DNA_ng/ul
AME82,AMMA_2021_2,C06,DNA_ng/ul
AME83,AMMA_2021_2,D06,DNA_ng/ul
AME84,AMMA_2021_2,E06,DNA_ng/ul
AME85,AMMA_2021_2,F06,DNA_ng/ul
AME86,AMMA_2021_2,G06,DNA_ng/ul
AME87,AMMA_2021_2,H06,DNA_ng/ul
AME88,AMMA_2021_2,A07,DNA_ng/ul
AMC61,AMMA_2021_2,B07,DNA_ng/ul
AMC62,AMMA_2021_2,C07,DNA_ng/ul
AMC63,AMMA_2021_2,D07,DNA_ng/ul
AMC64,AMMA_2021_2,E07,DNA_ng/ul
AMC65,AMMA_2021_2,F07,DNA_ng/ul
AMC66,AMMA_2021_2,G07,DNA_ng/ul
AMC67,AMMA_2021_2,H07,DNA_ng/ul
AMC68,AMMA_2021_2,A08,DNA_ng/ul
AMAT1,AMMA_2021_2,B08,DNA_ng/ul
AMAT2,AMMA_2021_2,C08,DNA_ng/ul
AMAT3,AMMA_2021_2,D08,DNA_ng/ul
AMAT4,AMMA_2021_2,E08,DNA_ng/ul
AMAT5,AMMA_2021_2,F08,DNA_ng/ul
AMAT6,AMMA_2021_2,G08,DNA_ng/ul
AMAT7,AMMA_2021_2,H08,DNA_ng/ul
AMAT8,AMMA_2021_2,A09,DNA_ng/ul
AMCRPY1,AMMA_2021_2,B09,DNA_ng/ul
AMCRPY2,AMMA_2021_2,C09,DNA_ng/ul
AMCRPY3,AMMA_2021_2,D09,DNA_ng/ul
AMCRPY4,AMMA_2021_2,E09,DNA_ng/ul
AMCRPY5,AMMA_2021_2,F09,DNA_ng/ul
AMCRPY6,AMMA_2021_2,G09,DNA_ng/ul
AMCRPY7,AMMA_2021_2,H09,DNA_ng/ul
AMCRPY8,AMMA_2021_2,A10,DNA_ng/ul
AMBLD1,AMMA_2021_2,B10,DNA_ng/ul
AMBLD2,AMMA_2021_2,C10,DNA_ng/ul
AMBLD3,AMMA_2021_2,D10,DNA_ng/ul
AMBLD4,AMMA_2021_2,E10,DNA_ng/ul
AMBLD5,AMMA_2021_2,F10,DNA_ng/ul
AMBLD6,AMMA_2021_2,G10,DNA_ng/ul
AMBLD7,AMMA_2021_2,H10,DNA_ng/ul
AMBLD8,AMMA_2021_2,A11,DNA_ng/ul
AMLNG9,AMMA_2021_2,B11,DNA_ng/ul
AMLNG10,AMMA_2021_2,C11,DNA_ng/ul
AMLNG11,AMMA_2021_2,D11,DNA_ng/ul
AMLNG12,AMMA_2021_2,E11,DNA_ng/ul
AMLNG13,AMMA_2021_2,F11,DNA_ng/ul
AMLNG14,AMMA_2021_2,G11,DNA_ng/ul
AMLNG15,AMMA_2021_2,H11,DNA_ng/ul
AMLNG16,AMMA_2021_2,A12,DNA_ng/ul
AMLNG17,AMMA_2021_2,B12,DNA_ng/ul
AMLNG18,AMMA_2021_2,C12,DNA_ng/ul
AMLNG19,AMMA_2021_2,D12,DNA_ng/ul
AMLNG20,AMMA_2021_2,E12,DNA_ng/ul
AMLNG22,AMMA_2021_2,F12,DNA_ng/ul
AMLNG21,AMMA_2021_2,G12,DNA_ng/ul
AMLNG23,AMMA_2021_2,H12,DNA_ng/ul
AMBP6,AMMA_2021_3,A01,DNA_ng/ul
AMLNG24,AMMA_2021_3,B01,DNA_ng/ul
AMLNG25,AMMA_2021_3,C01,DNA_ng/ul
AMAT9,AMMA_2021_3,D01,DNA_ng/ul
AMAT10,AMMA_2021_3,E01,DNA_ng/ul
AMAT11,AMMA_2021_3,F01,DNA_ng/ul
AMAT12,AMMA_2021_3,G01,DNA_ng/ul
AMAT13,AMMA_2021_3,H01,DNA_ng/ul
AMAT14,AMMA_2021_3,A02,DNA_ng/ul
AMAT15,AMMA_2021_3,B02,DNA_ng/ul
AMAT16,AMMA_2021_3,C02,DNA_ng/ul
AMAT17,AMMA_2021_3,D02,DNA_ng/ul
AMAT18,AMMA_2021_3,E02,DNA_ng/ul
AMAT19,AMMA_2021_3,F02,DNA_ng/ul
AMAT20,AMMA_2021_3,G02,DNA_ng/ul
AMAT21,AMMA_2021_3,H02,DNA_ng/ul
AMAT22,AMMA_2021_3,A03,DNA_ng/ul
AMAT23,AMMA_2021_3,B03,DNA_ng/ul
AMAT24,AMMA_2021_3,C03,DNA_ng/ul
AMAT25,AMMA_2021_3,D03,DNA_ng/ul
AMAT26,AMMA_2021_3,E03,DNA_ng/ul
AMAT27,AMMA_2021_3,F03,DNA_ng/ul
AMAT28,AMMA_2021_3,G03,DNA_ng/ul
AMBLD9,AMMA_2021_3,H03,DNA_ng/ul
AMBLD10,AMMA_2021_3,A04,DNA_ng/ul
AMBLD11,AMMA_2021_3,B04,DNA_ng/ul
AMBLD12,AMMA_2021_3,C04,DNA_ng/ul
AMBLD13,AMMA_2021_3,D04,DNA_ng/ul
AMBLD14,AMMA_2021_3,E04,DNA_ng/ul
AMBLD15,AMMA_2021_3,F04,DNA_ng/ul
AMBLD17,AMMA_2021_3,G04,DNA_ng/ul
AMBLD16,AMMA_2021_3,H04,DNA_ng/ul
AMBLD18,AMMA_2021_3,A05,DNA_ng/ul
AMBLD19,AMMA_2021_3,B05,DNA_ng/ul
AMBLD20,AMMA_2021_3,C05,DNA_ng/ul
AMBLD21,AMMA_2021_3,D05,DNA_ng/ul
AMBLD22,AMMA_2021_3,E05,DNA_ng/ul
AMBLD23,AMMA_2021_3,F05,DNA_ng/ul
AMBLD24,AMMA_2021_3,G05,DNA_ng/ul
AME89,AMMA_2021_3,H05,DNA_ng/ul
AME810,AMMA_2021_3,A06,DNA_ng/ul
AME811,AMMA_2021_3,B06,DNA_ng/ul
AME812,AMMA_2021_3,C06,DNA_ng/ul
AME813,AMMA_2021_3,D06,DNA_ng/ul
AME814,AMMA_2021_3,E06,DNA_ng/ul
AME815,AMMA_2021_3,F06,DNA_ng/ul
AME818,AMMA_2021_3,G06,DNA_ng/ul
AME816,AMMA_2021_3,H06,DNA_ng/ul
AME817,AMMA_2021_3,A07,DNA_ng/ul
AME819,AMMA_2021_3,B07,DNA_ng/ul
AME820,AMMA_2021_3,C07,DNA_ng/ul
AME821,AMMA_2021_3,D07,DNA_ng/ul
AME822,AMMA_2021_3,E07,DNA_ng/ul
AME823,AMMA_2021_3,F07,DNA_ng/ul
AME824,AMMA_2021_3,G07,DNA_ng/ul
AME825,AMMA_2021_3,H07,DNA_ng/ul
AMC69,AMMA_2021_3,A08,DNA_ng/ul
AMC610,AMMA_2021_3,B08,DNA_ng/ul
AMC611,AMMA_2021_3,C08,DNA_ng/ul
AMC612,AMMA_2021_3,D08,DNA_ng/ul
AMC613,AMMA_2021_3,E08,DNA_ng/ul
AMC614,AMMA_2021_3,F08,DNA_ng/ul
AMC615,AMMA_2021_3,G08,DNA_ng/ul
AMC616,AMMA_2021_3,H08,DNA_ng/ul
AMC617,AMMA_2021_3,A09,DNA_ng/ul
AMC618,AMMA_2021_3,B09,DNA_ng/ul
AMC619,AMMA_2021_3,C09,DNA_ng/ul
AMC620,AMMA_2021_3,D09,DNA_ng/ul
AMDT9,AMMA_2021_3,E09,DNA_ng/ul
AMDT10,AMMA_2021_3,F09,DNA_ng/ul
AMDT11,AMMA_2021_3,G09,DNA_ng/ul
AMDT12,AMMA_2021_3,H09,DNA_ng/ul
AMDT13,AMMA_2021_3,A10,DNA_ng/ul
AMDT14,AMMA_2021_3,B10,DNA_ng/ul
AMDT15,AMMA_2021_3,C10,DNA_ng/ul
AMDT16,AMMA_2021_3,D10,DNA_ng/ul
AMDT17,AMMA_2021_3,E10,DNA_ng/ul
AMDT18,AMMA_2021_3,F10,DNA_ng/ul
AMDT19,AMMA_2021_3,G10,DNA_ng/ul
AMDT20,AMMA_2021_3,H10,DNA_ng/ul
AMDT21,AMMA_2021_3,A11,DNA_ng/ul
AMDT22,AMMA_2021_3,B11,DNA_ng/ul
AMDT23,AMMA_2021_3,C11,DNA_ng/ul
AMDT24,AMMA_2021_3,D11,DNA_ng/ul
AMDT25,AMMA_2021_3,E11,DNA_ng/ul
AMCRPY9,AMMA_2021_3,F11,DNA_ng/ul
AMCRPY10,AMMA_2021_3,G11,DNA_ng/ul
AMCRPY11,AMMA_2021_3,H11,DNA_ng/ul
AMCRPY12,AMMA_2021_3,A12,DNA_ng/ul
AMCRPY13,AMMA_2021_3,B12,DNA_ng/ul
AMT59,AMMA_2021_3,C12,DNA_ng/ul
AMT510,AMMA_2021_3,D12,DNA_ng/ul
AMT511,AMMA_2021_3,E12,DNA_ng/ul
AMT512,AMMA_2021_3,F12,DNA_ng/ul
AMT513,AMMA_2021_3,G12,DNA_ng/ul
AMGNA29,AMMA_2021_3,H12,DNA_ng/ul
AMGNA21,AMMA_2021_4,A01,DNA_ng/ul
AMGNA22,AMMA_2021_4,B01,DNA_ng/ul
AMGNA23,AMMA_2021_4,C01,DNA_ng/ul
AMGNA24,AMMA_2021_4,D01,DNA_ng/ul
AMGNA25,AMMA_2021_4,E01,DNA_ng/ul
AMGNA26,AMMA_2021_4,F01,DNA_ng/ul
AMGNA27,AMMA_2021_4,G01,DNA_ng/ul
AMGNA28,AMMA_2021_4,H01,DNA_ng/ul
AMGNA29a,AMMA_2021_4,A02,DNA_ng/ul
AMGNA9,AMMA_2021_4,B02,DNA_ng/ul
AMGNA10,AMMA_2021_4,C02,DNA_ng/ul
AMGNA11,AMMA_2021_4,D02,DNA_ng/ul
AMGNA12,AMMA_2021_4,E02,DNA_ng/ul
AMGNA13,AMMA_2021_4,F02,DNA_ng/ul
AMGNA14,AMMA_2021_4,G02,DNA_ng/ul
AMGNA15,AMMA_2021_4,H02,DNA_ng/ul
AMGNA16,AMMA_2021_4,A03,DNA_ng/ul
AMGNA17,AMMA_2021_4,B03,DNA_ng/ul
AMGNA18,AMMA_2021_4,C03,DNA_ng/ul
AMGNA19,AMMA_2021_4,D03,DNA_ng/ul
AMGNA20,AMMA_2021_4,E03,DNA_ng/ul
AMFU229,AMMA_2021_4,F03,DNA_ng/ul
AMFU2210,AMMA_2021_4,G03,DNA_ng/ul
AMFU2211,AMMA_2021_4,H03,DNA_ng/ul
AMFU2220,AMMA_2021_4,A04,DNA_ng/ul
AMFU2221,AMMA_2021_4,B04,DNA_ng/ul
AMFU2222,AMMA_2021_4,C04,DNA_ng/ul
AMFU2223,AMMA_2021_4,D04,DNA_ng/ul
AMFU2224,AMMA_2021_4,E04,DNA_ng/ul
AMNATH21,AMMA_2021_4,F04,DNA_ng/ul
AMNATH22,AMMA_2021_4,G04,DNA_ng/ul
AMNATH23,AMMA_2021_4,H04,DNA_ng/ul
AMFU2212,AMMA_2021_4,A05,DNA_ng/ul
AMFU2213,AMMA_2021_4,B05,DNA_ng/ul
AMFU2214,AMMA_2021_4,C05,DNA_ng/ul
AMFU2215,AMMA_2021_4,D05,DNA_ng/ul
AMFU2216,AMMA_2021_4,E05,DNA_ng/ul
AMFU2217,AMMA_2021_4,F05,DNA_ng/ul
AMFU2218,AMMA_2021_4,G05,DNA_ng/ul
AMFU2219,AMMA_2021_4,H05,DNA_ng/ul
AMNATH24,AMMA_2021_4,A06,DNA_ng/ul
AMNATH25,AMMA_2021_4,B06,DNA_ng/ul
AMNATH9,AMMA_2021_4,C06,DNA_ng/ul
AMNATH10,AMMA_2021_4,D06,DNA_ng/ul
AMNATH11,AMMA_2021_4,E06,DNA_ng/ul
AMNATH12,AMMA_2021_4,F06,DNA_ng/ul
AMNATH13,AMMA_2021_4,G06,DNA_ng/ul
AMNATH14,AMMA_2021_4,H06,DNA_ng/ul
AMNATH15,AMMA_2021_4,A07,DNA_ng/ul
AMNATH16,AMMA_2021_4,B07,DNA_ng/ul
AMNATH17,AMMA_2021_4,C07,DNA_ng/ul
AMNATH18,AMMA_2021_4,D07,DNA_ng/ul
AMNATH19,AMMA_2021_4,E07,DNA_ng/ul
AMNATH20,AMMA_2021_4,F07,DNA_ng/ul
AMSDL21,AMMA_2021_4,G07,DNA_ng/ul
AMSDL22,AMMA_2021_4,H07,DNA_ng/ul
AMSDL23,AMMA_2021_4,A08,DNA_ng/ul
AMSDL24,AMMA_2021_4,B08,DNA_ng/ul
AMSDL25,AMMA_2021_4,C08,DNA_ng/ul
AMSADL9,AMMA_2021_4,D08,DNA_ng/ul
AMSADL10,AMMA_2021_4,E08,DNA_ng/ul
AMSADL11,AMMA_2021_4,F08,DNA_ng/ul
AMSADL12,AMMA_2021_4,G08,DNA_ng/ul
AMSADL13,AMMA_2021_4,H08,DNA_ng/ul
AMSADL14,AMMA_2021_4,A09,DNA_ng/ul
AMSADL15,AMMA_2021_4,B09,DNA_ng/ul
AMSADL16,AMMA_2021_4,C09,DNA_ng/ul
AMSADL17,AMMA_2021_4,D09,DNA_ng/ul
AMSADL18,AMMA_2021_4,E09,DNA_ng/ul
AMSADL19,AMMA_2021_4,F09,DNA_ng/ul
AMSADL20,AMMA_2021_4,G09,DNA_ng/ul
AMGB9,AMMA_2021_4,H09,DNA_ng/ul
AMGB10,AMMA_2021_4,A10,DNA_ng/ul
AMGB11,AMMA_2021_4,B10,DNA_ng/ul
AMGB12,AMMA_2021_4,C10,DNA_ng/ul
AMGB13,AMMA_2021_4,D10,DNA_ng/ul
AMGB14,AMMA_2021_4,E10,DNA_ng/ul
AMGB15,AMMA_2021_4,F10,DNA_ng/ul
AMGB16,AMMA_2021_4,G10,DNA_ng/ul
AMGB17,AMMA_2021_4,H10,DNA_ng/ul
AMGB18,AMMA_2021_4,A11,DNA_ng/ul
AMGB19,AMMA_2021_4,B11,DNA_ng/ul
AMGB20,AMMA_2021_4,C11,DNA_ng/ul
AMGB21,AMMA_2021_4,D11,DNA_ng/ul
AMGB22,AMMA_2021_4,E11,DNA_ng/ul
AMGB23,AMMA_2021_4,F11,DNA_ng/ul
AMGB24,AMMA_2021_4,G11,DNA_ng/ul
AMGB25,AMMA_2021_4,H11,DNA_ng/ul
AMQURY9,AMMA_2021_4,A12,DNA_ng/ul
AMQURY10,AMMA_2021_4,B12,DNA_ng/ul
AMMILL10,AMMA_2021_4,C12,DNA_ng/ul
AMMILL11,AMMA_2021_4,D12,DNA_ng/ul
AMMILL12,AMMA_2021_4,E12,DNA_ng/ul
AMMILL13,AMMA_2021_4,F12,DNA_ng/ul
AMMILL14,AMMA_2021_4,G12,DNA_ng/ul
AMMILL9,AMMA_2021_4,H12,DNA_ng/ul
AMMILL15,AMMA_2022_5,A01,DNA_ng/ul
AMMILL16,AMMA_2022_5,B01,DNA_ng/ul
AMMILL17,AMMA_2022_5,C01,DNA_ng/ul
AMMILL18,AMMA_2022_5,D01,DNA_ng/ul
AMMILL19,AMMA_2022_5,E01,DNA_ng/ul
AMMILL20,AMMA_2022_5,F01,DNA_ng/ul
AMWP21,AMMA_2022_5,G01,DNA_ng/ul
AMWP22,AMMA_2022_5,H01,DNA_ng/ul
AMWP23,AMMA_2022_5,A02,DNA_ng/ul
AMWP24,AMMA_2022_5,B02,DNA_ng/ul
AMWP25,AMMA_2022_5,C02,DNA_ng/ul
AMWP10,AMMA_2022_5,D02,DNA_ng/ul
AMWP11,AMMA_2022_5,E02,DNA_ng/ul
AMWP12,AMMA_2022_5,F02,DNA_ng/ul
AMWP13,AMMA_2022_5,G02,DNA_ng/ul
AMWP14,AMMA_2022_5,H02,DNA_ng/ul
AMWP16,AMMA_2022_5,A03,DNA_ng/ul
AMWP17,AMMA_2022_5,B03,DNA_ng/ul
AMWP18,AMMA_2022_5,C03,DNA_ng/ul
AMWP19,AMMA_2022_5,D03,DNA_ng/ul
AMWLK9,AMMA_2022_5,E03,DNA_ng/ul
AMWLK10,AMMA_2022_5,F03,DNA_ng/ul
AMWLK11,AMMA_2022_5,G03,DNA_ng/ul
AMWLK12,AMMA_2022_5,H03,DNA_ng/ul
AMWLK13,AMMA_2022_5,A04,DNA_ng/ul
AMWLK15,AMMA_2022_5,B04,DNA_ng/ul
AMWLK16,AMMA_2022_5,C04,DNA_ng/ul
AMWLK14,AMMA_2022_5,D04,DNA_ng/ul
AMWLK18,AMMA_2022_5,E04,DNA_ng/ul
AMWLK19,AMMA_2022_5,F04,DNA_ng/ul
AMWLK17,AMMA_2022_5,G04,DNA_ng/ul
AMWLK20,AMMA_2022_5,H04,DNA_ng/ul
AMWLK21,AMMA_2022_5,A05,DNA_ng/ul
AMWLK22,AMMA_2022_5,B05,DNA_ng/ul
AMWLK23,AMMA_2022_5,C05,DNA_ng/ul
AMWLK24,AMMA_2022_5,D05,DNA_ng/ul
AMWLK25,AMMA_2022_5,E05,DNA_ng/ul
AMWEST9,AMMA_2022_5,F05,DNA_ng/ul
AMWEST10,AMMA_2022_5,G05,DNA_ng/ul
AMWEST11,AMMA_2022_5,H05,DNA_ng/ul
AMWEST12,AMMA_2022_5,A06,DNA_ng/ul
AMWEST13,AMMA_2022_5,B06,DNA_ng/ul
AMWEST14,AMMA_2022_5,C06,DNA_ng/ul
AMWEST15,AMMA_2022_5,D06,DNA_ng/ul
AMWEST16,AMMA_2022_5,E06,DNA_ng/ul
AMWEST17,AMMA_2022_5,F06,DNA_ng/ul
AMWEST18,AMMA_2022_5,G06,DNA_ng/ul
AMWEST19,AMMA_2022_5,H06,DNA_ng/ul
AMWEST20,AMMA_2022_5,A07,DNA_ng/ul
AMWP15,AMMA_2022_5,B07,DNA_ng/ul
AMWP20,AMMA_2022_5,C07,DNA_ng/ul
AMWP9,AMMA_2022_5,D07,DNA_ng/ul
AMLRL14,AMMA_2022_5,E07,DNA_ng/ul
AMLRL15,AMMA_2022_5,F07,DNA_ng/ul
AMLRL16,AMMA_2022_5,G07,DNA_ng/ul
AMLRL17,AMMA_2022_5,H07,DNA_ng/ul
AMLRL18,AMMA_2022_5,A08,DNA_ng/ul
AMLRL19,AMMA_2022_5,B08,DNA_ng/ul
AMLRL20,AMMA_2022_5,C08,DNA_ng/ul
AMLRL21,AMMA_2022_5,D08,DNA_ng/ul
AMLRL22,AMMA_2022_5,E08,DNA_ng/ul
AMLRL23,AMMA_2022_5,F08,DNA_ng/ul
AMLRL24,AMMA_2022_5,G08,DNA_ng/ul
AMLRL25,AMMA_2022_5,H08,DNA_ng/ul
AMSHRB9,AMMA_2022_5,A09,DNA_ng/ul
AMSHRB10,AMMA_2022_5,B09,DNA_ng/ul
AMSHRB11,AMMA_2022_5,C09,DNA_ng/ul
AMSHRB12,AMMA_2022_5,D09,DNA_ng/ul
AMSHRB13,AMMA_2022_5,E09,DNA_ng/ul
AMSHRB14,AMMA_2022_5,F09,DNA_ng/ul
AMSHRB15,AMMA_2022_5,G09,DNA_ng/ul
AMSHRB16,AMMA_2022_5,H09,DNA_ng/ul
AMSHRB18,AMMA_2022_5,A10,DNA_ng/ul
AMSHRB19,AMMA_2022_5,B10,DNA_ng/ul
AMSHRB20,AMMA_2022_5,C10,DNA_ng/ul
AMSHRB17,AMMA_2022_5,D10,DNA_ng/ul
AMSHRB21,AMMA_2022_5,E10,DNA_ng/ul
AMSHRB22,AMMA_2022_5,F10,DNA_ng/ul
AMSHRB23,AMMA_2022_5,G10,DNA_ng/ul
AMSHRB24,AMMA_2022_5,H10,DNA_ng/ul
AMSHRB25,AMMA_2022_5,A11,DNA_ng/ul
AMT514,AMMA_2022_5,B11,DNA_ng/ul
AMT515,AMMA_2022_5,C11,DNA_ng/ul
AMT516,AMMA_2022_5,D11,DNA_ng/ul
AMT517,AMMA_2022_5,E11,DNA_ng/ul
AMT518,AMMA_2022_5,F11,DNA_ng/ul
AMT519,AMMA_2022_5,G11,DNA_ng/ul
AMT520,AMMA_2022_5,H11,DNA_ng/ul
AMT521,AMMA_2022_5,A12,DNA_ng/ul
AMT522,AMMA_2022_5,B12,DNA_ng/ul
AMT523,AMMA_2022_5,C12,DNA_ng/ul
AMT524,AMMA_2022_5,D12,DNA_ng/ul
AMT525,AMMA_2022_5,E12,DNA_ng/ul
,AMMA_2022_5,H12,DNA_ng/ul
